4.57288966842058 1.32
4.70597790168252 1.16
4.16992500144231 1.31
4.98641093525204 1.39
4.48542682717024 1.23
4.16992500144231 1.17
5.05311133645956 1.16
3.59693514238723 1.15
4.87282875953489 1.28
4.34340782229781 1.28
4.32912359629157 1.25
4.03562390973072 1.19
5.03121873061072 1.21
4.27798474729977 1.25
4.81762325751143 1.34
4.5298209465287 1.18
5.0746766862945 1.31
4.68369645430652 1.41
4.39231742277876 1.22
4.77082904603249 1.30
4.53605290024021 1.18
4.74416109557041 1.48
5.0574502721839 1.18
4.78135971352466 1.36
3.67807190511264 1.15
4.27798474729977 1.16
4.51096191927738 1.15
4.08746284125034 1.33
4.5909612413426 1.23
4.59693514238723 1.21
4.45285896471381 1.24
4.28540221886225 0.98
4.92124588858559 1.36
4.67807190511264 1.35
4.62643913669732 1.40
4.13750352374993 1.18
4.44625622988957 1.26
4.83794324189103 1.23
4.90207357931074 1.42
4.96347412397489 1.40
3.90689059560852 1.26
4.41953889151379 1.30
4.55458885167764 1.27
4.60288440871842 1.31
4.70597790168252 1.34
3.99095486039699 1.11
4.57893871309339 1.28
3.8972404255748 1.10
4.17791779219584 1.30
4.45285896471381 1.25
4.37155886261196 1.24
4.51096191927738 1.40
4.18586654531133 1.31
4.17791779219584 1.32
4.64385618977472 1.26
4.35049724708413 1.54
4.23266075679028 1.36
4.32192809488736 1.34
4.37155886261196 1.58
4.71699089440494 1.19
4.5298209465287 1.33
4.31469652565629 1.42
4.05311133645956 1.27
3.93545974780529 1.14
4.09592441999854 1.10
3.83794324189103 1.28
4.41278152533848 1.18
4.05311133645956 1.19
4.28540221886225 1.13
4 1.24
4.05311133645956 0.95
4.37155886261196 1.21
4.30012372456901 1.20
4.39917109381982 1.28
4.21723071622067 1.17
3.23266075679028 1.15
4.49825086752783 1.30
3.85798099512757 1.19
4.07895134139482 1.19
4.61470984411521 1.31
4.15380533607904 1.09
4.81762325751143 1.45
4.39231742277876 1.18
4.90689059560852 1.32
4.88264304936184 1.20
4.80219321694183 1.21
4.94953493301701 1.33
4.4594316186373 1.27
3.94485844580754 1.23
4.63807383718072 1.46
3.75488750216347 1.01
4.09592441999854 1.13
4.64385618977472 1.41
4.73335434061383 1.38
4.51727569320958 1.32
4.4594316186373 1.43
4.06177619758669 1.10
4.5909612413426 1.20
4.75488750216347 1.18
3.99095486039699 1.12
5.10433665981474 1.42
4.02680005934372 1.35
5.00898878322725 1.23
4.84799690655495 1.17
4.72246602447109 1.41
3.70043971814109 1.27
4.12928301694497 1.29
3.84799690655495 1.20
3.84799690655495 1.09
4.16188768237689 1.12
4.09592441999854 1.18
3.59693514238723 1.05
4.75488750216347 1.34
4.5298209465287 1.41
4.75488750216347 1.09
4.4594316186373 1.18
4.17791779219584 1.05
3.60880924267552 1.22
5.40599235967584 1.23
4.62643913669732 1.19
4.12101540096137 1.18
4.00898878322725 1.27
4.23266075679028 1.27
4.62643913669732 1.45
4.68369645430652 1.34
4.57893871309339 1.30
3.95419631038688 1.25
4.53605290024021 1.26
4.27798474729977 1.44
4.18586654531133 1.23
4.43295940727611 1.31
3.76553474636298 1.23
4.63226821549951 1.28
4.64385618977472 1.29
4.39917109381982 1.21
4.43295940727611 1.13
4.29278174922785 1.38
4.34340782229781 1.46
4.73335434061383 1.25
3.90689059560852 1.29
4.10433665981474 1.18
4.40599235967584 1.20
4.95419631038688 1.46
3.93545974780529 1.16
4.86789646399265 1.12
4.25550073314839 1.15
4.91169158187234 1.22
4.50462039240355 1.10
4.32912359629157 1.15
4.66106547980695 1.25
4.75488750216347 1.15
4.34340782229781 1.30
4.56071495447448 1.36
4.30742852519225 1.19
4.55458885167764 1.25
3.6667565918848 1.19
3.70043971814109 1.14
4.85798099512757 1.41
4.43962313755712 1.43
4.5298209465287 1.31
4.94953493301701 1.28
4.32912359629157 1.12
4.34340782229781 1.36
4.09592441999854 1.20
4.20163386116965 1.23
4.29278174922785 1.28
4.73876783680019 1.41
4.41278152533848 1.33
4.81762325751143 1.31
4.50462039240355 1.37
3.88752527074159 1.19
4.74416109557041 0.99
3.67807190511264 1.09
5.01792190799726 1.45
4.24792751344359 1.27
4.58496250072116 1.37
4.86789646399265 1.64
4.54225804976692 1.43
4.32912359629157 1.51
4.62643913669732 1.39
4.48542682717024 1.09
4.70043971814109 1.26
4.40599235967584 1.47
4.62643913669732 1.57
4.02680005934372 1.38
4.75488750216347 1.53
4.32192809488736 1.37
4.16188768237689 1.28
3.77610398807316 1.19
4.33628338786443 1.24
4.38543103719352 1.15
4.22496636500027 1.28
4.63226821549951 1.22
4.56071495447448 1.34
4.69488019279919 1.42
4.85299758761332 1.20
4.43295940727611 1.18
3.86789646399265 1.10
4.70597790168252 1.22
3.84799690655495 1.15
4.63807383718072 1.20
4.77610398807316 1.32
4.54843662469604 1.19
4.80219321694183 1.34
4.70597790168252 1.29
4.09592441999854 1.12
3.6667565918848 1.20
4.21723071622067 1.35
4.5298209465287 1.10
5.15785216914174 1.21
3.40599235967584 1.10
4.35755200461808 1.19
4.17791779219584 1.33
4.91647664443772 1.21
4.78135971352466 1.26
4.69488019279919 1.29
4.04439411935845 1.27
4.62643913669732 1.28
4 1.12
4.47897180503294 1.28
3.8073549220576 1.27
4.24792751344359 1.26
4.80219321694183 1.40
3.96347412397489 1.00
5.2667865406949 1.19
4.41278152533848 1.16
5.18982455888002 1.42
4.26303440583379 1.24
4.87282875953489 1.49
4.85798099512757 1.23
4.27052894238072 1.26
5.27052894238072 1.42
4.49825086752783 1.22
4.19377174339668 1.19
4.71149490665009 1.40
4.43962313755712 1.28
4.31469652565629 1.22
4.06177619758669 1.22
3.96347412397489 1.10
4.47248777146274 1.13
3.81762325751143 1.10
4.29278174922785 1.30
4.01792190799726 1.16
4.40599235967584 1.35
4.57893871309339 0.97
4.25550073314839 1.25
5.06177619758669 1.17
4.74953426766926 1.27
3.8073549220576 1.20
4.82781902461732 1.27
4.55458885167764 1.06
3.81762325751143 1.20
4.67807190511264 1.36
4.57288966842058 1.34
4.28540221886225 1.12
4.5909612413426 1.30
4.35755200461808 1.20
5.14974711950468 1.19
4.63807383718072 1.31
4.45285896471381 1.31
3.59693514238723 1.24
4.78135971352466 1.45
4.73335434061383 1.19
4.48542682717024 1.30
4.33628338786443 1.26
5.12101540096137 1.30
4.80219321694183 1.15
4.64385618977472 1.20
4.70597790168252 1.43
4.55458885167764 1.24
4.78659636189081 1.36
4.12928301694497 1.26
4.47897180503294 1.42
4.60880924267552 1.46
4.20945336562895 1.22
4.12101540096137 1.16
4.78659636189081 1.15
4.93545974780529 1.23
4.24031432933371 1.26
4.19377174339668 1.25
4.99095486039699 1.34
4.10433665981474 1.28
4.31469652565629 1.22
4.49185309632967 1.37
4.28540221886225 1.23
4.15380533607904 1.20
4.73335434061383 1.36
3.90689059560852 1.32
3.98185265328974 1.26
4.16188768237689 1.22
4.62058641045188 1.35
4.20163386116965 1.26
3.82781902461732 1.28
4.48542682717024 1.21
3.8073549220576 1.14
4.12101540096137 1.28
4.47248777146274 1.33
4.30012372456901 1.15
4.54843662469604 1.21
4.54225804976692 1.23
4.37851162325373 1.28
4.43962313755712 1.23
4.05311133645956 1.28
4.23266075679028 1.13
4.37155886261196 1.29
5.16992500144231 1.29
4.95884267524324 1.20
4.40599235967584 1.18
5.37503943134692 1.20
4.62058641045188 1.36
4.80219321694183 1.22
4.70043971814109 1.44
3.58496250072116 1.01
3.99095486039699 1.14
3.81762325751143 1.22
4.31469652565629 1.18
4.18586654531133 1.29
3.58496250072116 1.04
3.94485844580754 1.31
3.8972404255748 1.22
4.51727569320958 1.32
4.64961545906341 1.40
3.95419631038688 1.11
4.32912359629157 1.25
4.32192809488736 1.29
3.93545974780529 1.16
4.39231742277876 1.20
4.65535182861255 1.54
4.01792190799726 1.26
5.03121873061072 1.32
5.3110671022556 1.49
4.24792751344359 1.18
4.61470984411521 1.33
4.13750352374993 1.16
4.54843662469604 1.47
4.30012372456901 1.26
4.00898878322725 1.08
3.95419631038688 1.28
4.81762325751143 1.44
3.76553474636298 1.07
4.12101540096137 1.24
3.65535182861255 1.10
4.13750352374993 1.38
4.5668151540109 1.17
4.34340782229781 1.14
4.7279204545632 1.34
4.45285896471381 1.42
5.44956137461324 1.56
4.56071495447448 1.36
4.52356195605701 1.30
4.34340782229781 1.08
4.63807383718072 1.36
3.75488750216347 1.10
4.79181407116183 1.24
4.88264304936184 1.33
4.30742852519225 1.20
4.17791779219584 1.18
4.25550073314839 1.18
4.50462039240355 1.37
4.31469652565629 1.20
4.77610398807316 1.40
4.53605290024021 1.37
4.8972404255748 1.35
4.04439411935845 1.37
5.3037807481771 1.44
4.74953426766926 1.25
5.04875931191985 1.38
5.16188768237689 1.35
4.48542682717024 1.33
4.5298209465287 1.35
4.11270013274936 1.15
4.10433665981474 1.06
4.64385618977472 1.14
4.78135971352466 1.26
4.04439411935845 1.08
4.49185309632967 1.33
4.39917109381982 1.30
4.37155886261196 1.22
4.48542682717024 1.33
3.47248777146274 0.94
3.70043971814109 1.11
4.69488019279919 1.51
3.877744249949 1.17
4.78659636189081 1.27
4.64385618977472 1.21
4.16992500144231 1.13
5.22496636500027 1.40
4.73876783680019 1.40
4.41953889151379 1.17
4.8923910259134 1.31
4.94016675048282 1.38
5.1333991254172 1.48
5.12515513132229 1.23
4.64961545906341 1.23
4.20163386116965 1.18
4.71699089440494 1.32
4.48542682717024 1.15
3.83794324189103 1.00
4.66106547980695 1.40
4.65535182861255 1.16
4.33628338786443 1.28
4.76022094646651 1.18
4.09592441999854 1.44
4.48542682717024 1.25
5.10013667128545 1.27
4.8972404255748 1.20
4.79181407116183 1.34
4.40599235967584 1.22
4.06177619758669 1.22
5.38887833881199 1.42
4.84799690655495 1.47
4.71149490665009 1.30
4.54843662469604 1.41
4.95419631038688 1.10
5.72519581722666 1.22
5.03562390973072 1.30
4.91647664443772 0.99
4.4594316186373 1.35
4.73335434061383 1.23
4.6667565918848 1.45
4.02680005934372 1.18
4.5909612413426 1.36
4.31469652565629 1.11
3.94485844580754 1.22
4.49185309632967 1.43
4.68369645430652 1.35
4.5909612413426 1.24
4.27798474729977 1.07
4.83794324189103 1.30
4.79701297783615 1.27
4.30012372456901 1.21
4.32192809488736 1.14
4.28540221886225 1.32
4.63226821549951 1.24
4.98641093525204 1.40
4.24792751344359 1.20
4.27052894238072 1.23
3.84799690655495 1.22
4.45285896471381 1.21
4.6724253419715 1.42
4.99548451887751 1.27
5.03121873061072 1.12
4.07895134139482 1.23
4.5909612413426 1.30
4.58496250072116 1.42
4.28540221886225 1.16
4.54843662469604 1.24
4.33628338786443 1.36
5.34695688937888 1.36
4.62643913669732 1.31
5.20554891117303 1.27
4.71149490665009 1.34
4.6667565918848 1.26
4.43962313755712 1.35
4.79701297783615 1.35
4.58496250072116 1.43
4.47248777146274 1.18
4.8923910259134 1.15
4.4594316186373 1.09
4.27052894238072 1.28
4.57288966842058 1.35
4.48542682717024 1.32
3.91647664443772 1.17
3.86789646399265 1.23
4.74953426766926 1.20
4.90689059560852 1.28
4.46597446450407 1.10
4.47897180503294 1.34
4.17791779219584 1.18
4.00898878322725 1.34
3.97269265400426 1.31
3.877744249949 1.18
3.8972404255748 1.05
4.24792751344359 1.29
3.92599941855622 1.25
4.51727569320958 1.40
4.08746284125034 1.06
4.28540221886225 1.19
3.8972404255748 1.23
4.48542682717024 1.22
4.53605290024021 1.17
4.52356195605701 1.22
5.03562390973072 1.45
5.00450139223494 1.35
4.79701297783615 1.51
4.30742852519225 1.12
4.37851162325373 1.11
5.04001567884788 1.22
5.08321336824898 1.63
3.85798099512757 1.16
4.47248777146274 1.22
5.30012372456901 1.38
4.8923910259134 1.29
4.5298209465287 1.07
4.37155886261196 1.47
3.97269265400426 1.31
4.36457243229586 1.52
4.39917109381982 1.26
3.82781902461732 1.17
4.70597790168252 1.11
4.43962313755712 1.15
4.46597446450407 1.25
4.73335434061383 1.19
4.84799690655495 1.27
4.5298209465287 1.29
5.09592441999854 1.64
4.97269265400427 1.59
3.90689059560852 1.19
3.90689059560852 1.14
4.43295940727611 1.18
4.23266075679028 1.37
4.5298209465287 1.19
4.35755200461808 1.22
4.36457243229586 1.15
3.60880924267552 1.04
4.5298209465287 1.43
4.30012372456901 1.19
4.6724253419715 1.38
4.39231742277876 1.29
4.35049724708413 1.31
4.77082904603249 1.31
4.02680005934372 1.15
4.18586654531133 1.27
4.47897180503294 1.34
4.72246602447109 1.24
4.5298209465287 1.38
4.19377174339668 1.09
4.85798099512757 1.37
4.77082904603249 1.43
4.34340782229781 1.23
4.33628338786443 1.33
4.45285896471381 1.30
4.22496636500027 1.24
4.13750352374993 1.36
4.16992500144231 1.23
4.76553474636298 1.43
3.86789646399265 1.21
4.94953493301701 1.39
4.43295940727611 1.14
4.03562390973072 1.08
5.4594316186373 1.35
4.5298209465287 1.23
4.77082904603249 1.25
4.0703893278914 1.04
4.30012372456901 1.31
4.52356195605701 1.41
4.79701297783615 1.40
4.37155886261196 1.36
4.46597446450407 1.41
4.24031432933371 1.34
4.4262647547021 1.18
4.58496250072116 1.26
3.82781902461732 1.26
4.43295940727611 1.29
4.27798474729977 1.16
4.63226821549951 1.32
4.36457243229586 1.20
3.52356195605701 0.98
4.16188768237689 1.45
4.38543103719352 1.30
4.38543103719352 1.25
4.32192809488736 1.27
4.06177619758669 1.22
4.30742852519225 1.25
4.24031432933371 1.02
4.59693514238723 1.36
3.73335434061383 1.27
4.28540221886225 1.15
4.64385618977472 1.21
4.79701297783615 1.21
4.17791779219584 1.12
4.83794324189103 1.46
4.33628338786443 1.18
4.02680005934372 1.43
4.80219321694183 1.51
4.74416109557041 1.14
4.94953493301701 1.37
4.81762325751143 1.24
4.87282875953489 1.28
4.58496250072116 1.31
4.44625622988957 1.38
4.85798099512757 1.22
5.0574502721839 1.31
4.40599235967584 1.13
4.85798099512757 1.19
4.83794324189103 1.28
4.83289001416474 1.32
4.98185265328974 1.39
4.24792751344359 1.30
4.64961545906341 1.35
4.13750352374993 1.34
4.30742852519225 1.20
4.31469652565629 1.35
4.49185309632967 1.33
3.95419631038688 1.14
4.10433665981474 1.08
4.53605290024021 1.30
4.34340782229781 1.35
4.52356195605701 1.33
4.17791779219584 1.42
4.5909612413426 1.39
4.56071495447448 1.40
5.02680005934372 1.27
4.66106547980695 1.10
4.63807383718072 1.24
4.21723071622067 1.10
4.39231742277876 1.21
4.62058641045188 1.28
3.63226821549951 1.10
4.80219321694183 1.28
4.43295940727611 1.29
3.76553474636298 1.16
4.44625622988957 1.16
4.02680005934372 1.27
4.38543103719352 1.28
4.51096191927738 1.21
4.30012372456901 1.09
4.84297883178832 1.69
4.41953889151379 1.33
4.30742852519225 1.09
4.50462039240355 1.28
4.90207357931074 1.42
4.24031432933371 1.29
4.10433665981474 1.15
4 1.10
4.65535182861255 1.38
4.79181407116183 1.28
3.93545974780529 1.21
4.49825086752783 1.29
4.6667565918848 1.22
3.65535182861255 1.06
4.44625622988957 1.18
4.26303440583379 1.35
4.50462039240355 1.31
4.15380533607904 1.12
4.28540221886225 1.16
4.21723071622067 1.26
4.44625622988957 1.10
3.82781902461732 1.03
4.30012372456901 1.32
4.80219321694183 1.14
4.70597790168252 1.16
4.49825086752783 1.10
4.16188768237689 1.05
5.2592724870376 1.12
3.82781902461732 1.27
4.64961545906341 1.47
4.5668151540109 1.41
4.64961545906341 1.13
4.69488019279919 1.37
4.5298209465287 1.24
4.5909612413426 1.18
5.07895134139482 1.41
5.0703893278914 1.48
4.01792190799726 1.32
5.14974711950468 1.17
4.17791779219584 1.21
4.35755200461808 1.16
4.16992500144231 1.32
4.43962313755712 1.29
4.49825086752783 1.29
4.13750352374993 1.02
4.7279204545632 1.47
4.32912359629157 1.28
4.81249822533356 1.30
4.32192809488736 1.36
4.81249822533356 1.37
4.77610398807316 1.22
4.32192809488736 1.20
5.0703893278914 1.25
5.19770815795585 1.35
4.63226821549951 1.53
3.6667565918848 0.99
4.37851162325373 1.36
4.24792751344359 1.44
4.5668151540109 1.23
3.77610398807316 1.26
4.00898878322725 1.18
4.37155886261196 1.27
4.06177619758669 1.38
3.8972404255748 1.20
4.59693514238723 1.31
4.59693514238723 1.24
5.10013667128545 1.20
4.93545974780529 1.23
4.36457243229586 1.34
4.63226821549951 1.25
3.63226821549951 1.14
3.47248777146274 1.29
4.48542682717024 1.45
5.0703893278914 1.23
4.71699089440494 1.33
4.03562390973072 1.13
4.37851162325373 1.17
4.19377174339668 1.21
4.27052894238072 1.19
4.47897180503294 1.31
4.78659636189081 1.20
4.98641093525204 1.17
4.47248777146274 1.18
5.0574502721839 1.41
4.50462039240355 1.26
4.76022094646651 1.44
4.84297883178832 1.29
4.74416109557041 1.18
4.02680005934372 1.41
4.84297883178832 1.24
3.91647664443772 1.17
4.44625622988957 1.33
4.65535182861255 1.30
4.04439411935845 1.18
4.23266075679028 1.23
4.11270013274936 1.39
4.98185265328974 1.31
4.72246602447109 1.37
4.63807383718072 1.27
4.34340782229781 1.24
3.29278174922785 1.10
4.54843662469604 1.28
4.04439411935845 1.17
4.44625622988957 1.50
4.35049724708413 1.41
4.10433665981474 1.24
4.4594316186373 1.31
5.16188768237689 1.30
4.63807383718072 1.30
4.35755200461808 0.98
4.39917109381982 1.38
4.51727569320958 1.10
4.49185309632967 1.24
4.6724253419715 1.28
4.75488750216347 1.30
4.23266075679028 1.39
4.36457243229586 1.25
4 1.18
4.22496636500027 1.30
4.63807383718072 1.13
4.27798474729977 1.22
4.62643913669732 1.44
3.88752527074159 1.14
4.40599235967584 1.19
5.34695688937888 1.21
4.37851162325373 1.12
4.10433665981474 1.13
4.13750352374993 1.28
4.55458885167764 1.33
4.28540221886225 1.41
4.09592441999854 1.33
4.40599235967584 1.34
4.82273014794452 1.12
4.4594316186373 1.16
3.93545974780529 1.19
4.37155886261196 1.26
4.40599235967584 1.19
4.47897180503294 1.29
4.93073733756289 1.22
4.76022094646651 1.30
3.93545974780529 1.19
4.19377174339668 1.32
4.24031432933371 1.25
4.6724253419715 1.31
4.58496250072116 1.62
4.35755200461808 1.16
4.64385618977472 1.26
4.65535182861255 1.19
4.25550073314839 1.03
4.64961545906341 1.25
4.27798474729977 1.27
4.15380533607904 1.24
4.50462039240355 1.11
4.39917109381982 1.27
4.76553474636298 1.27
3.98185265328974 1.22
4.75488750216347 1.30
4.31469652565629 1.45
3.78659636189081 1.31
4.38543103719352 1.23
4.57893871309339 1.17
4.68929916053589 1.35
4.81762325751143 1.56
4.60288440871842 1.13
4.5668151540109 1.13
4.31469652565629 1.16
4.93545974780529 1.29
3.91647664443772 1.14
4.26303440583379 1.28
4.52356195605701 1.49
4.81762325751143 1.21
3.92599941855622 1.17
4.50462039240355 1.24
4.70043971814109 1.22
4.48542682717024 1.16
4.35049724708413 1.45
4.58496250072116 1.19
4.62058641045188 1.26
4.33628338786443 1.19
4.84297883178832 1.40
4.60288440871842 1.25
4.12101540096137 1.18
4.11270013274936 1.40
4.85798099512757 1.23
4.8073549220576 1.36
4.35049724708413 1.19
3.8972404255748 1.22
3.84799690655495 1.07
5.34340782229781 1.26
4.32192809488736 1.36
3.78659636189081 1.24
4.06177619758669 1.03
4.30742852519225 1.20
4.28540221886225 1.27
4.47248777146274 1.31
4.64385618977472 1.35
4.39231742277876 1.25
4.54225804976692 1.17
4.54843662469604 1.26
4.01792190799726 1.09
4.27052894238072 1.35
4.20163386116965 1.22
4.64385618977472 1.28
3.53605290024021 1.03
4.5298209465287 1.32
3.96347412397489 1.22
4.16992500144231 1.09
